Hand-on Exercise 5 — Modelling, Visualising and Analysing Network Data with R – <img src='/images/logo.png' style='height:40px;'>
…
     source          target        SentDate            SentTime             
 Min.   : 1.00   Min.   : 1.00   Length:9063        Min.   :08:18:00.00000  
 1st Qu.: 6.00   1st Qu.:13.00   Class :character   1st Qu.:12:57:00.00000  
 Median :23.00   Median :28.00   Mode  :character   Median :15:08:00.00000  
 Mean   :22.51   Mean   :26.44                      Mean   :14:55:39.79477  
 3rd Qu.:36.00   3rd Qu.:39.00                      3rd Qu.:16:54:00.00000  
 Max.   :54.00   Max.   :54.00                      Max.   :22:33:00.00000  
   Subject          MainSubject        sourceLabel        targetLabel       
 Length:9063        Length:9063        Length:9063        Length:9063       
 Class :character   Class :character   Class :character   Class :character  
 Mode  :character   Mode  :character   Mode  :character   Mode  :character  

head(GAStech_edges,100)

# A tibble: 100 × 8
   source target SentDate SentTime Subject   MainSubject sourceLabel targetLabel
    <dbl>  <dbl> <chr>    <time>   <chr>     <chr>       <chr>       <chr>      
 1     43     41 6/1/2014 08:39    GT-Seism… Work relat… Sven.Flecha Isak.Baza  
 2     43     40 6/1/2014 08:39    GT-Seism… Work relat… Sven.Flecha Lucas.Alca…
 3     44     51 6/1/2014 08:58    Inspecti… Work relat… Kanon.Herr… Felix.Resu…
 4     44     52 6/1/2014 08:58    Inspecti… Work relat… Kanon.Herr… Hideki.Coc…
 5     44     53 6/1/2014 08:58    Inspecti… Work relat… Kanon.Herr… Inga.Ferro 
 6     44     45 6/1/2014 08:58    Inspecti… Work relat… Kanon.Herr… Varja.Lagos
 7     44     44 6/1/2014 08:58    Inspecti… Work relat… Kanon.Herr… Kanon.Herr…
 8     44     46 6/1/2014 08:58    Inspecti… Work relat… Kanon.Herr… Stenig.Fus…
 9     44     48 6/1/2014 08:58    Inspecti… Work relat… Kanon.Herr… Hennie.Osv…
10     44     49 6/1/2014 08:58    Inspecti… Work relat… Kanon.Herr… Isia.Vann  
# ℹ 90 more rows
…
summary(GAStech_nodes)

       id           label            Department           Title          
 Min.   : 1.00   Length:54          Length:54          Length:54         
 1st Qu.:14.25   Class :character   Class :character   Class :character  
 Median :27.50   Mode  :character   Mode  :character   Mode  :character  
 Mean   :27.50                                                           
 3rd Qu.:40.75                                                           
 Max.   :54.00                                                           

head(GAStech_nodes,100)

# A tibble: 54 × 4
      id label               Department     Title                               
   <dbl> <chr>               <chr>          <chr>                               
 1     1 Mat.Bramar          Administration Assistant to CEO                    
 2     2 Anda.Ribera         Administration Assistant to CFO                    
 3     3 Rachel.Pantanal     Administration Assistant to CIO                    
 4     4 Linda.Lagos         Administration Assistant to COO                    
 5     5 Ruscella.Mies.Haber Administration Assistant to Engineering Group Mana…
 6     6 Carla.Forluniau     Administration Assistant to IT Group Manager       
 7     7 Cornelia.Lais       Administration Assistant to Security Group Manager 
 8    44 Kanon.Herrero       Security       Badging Office                      
 9    45 Varja.Lagos         Security       Badging Office                      
10    46 Stenig.Fusil        Security       Building Control                    
# ℹ 44 more rows
…
