Hands-on_Ex04d— Visualising Models – <img src='/images/logo.png' style='height:40px;'>
…
Install Packages
Import Data
Data Overview

pacman::p_load(readxl, SmartEDA, tidyverse,
               ggstatsplot, easystats, tidymodels,parameters, see)

In the code chunk below, read_xls() of readxl package is used to import the data worksheet of ToyotaCorolla.xls workbook into R.

car_resale <- read_xls("data/ToyotaCorolla.xls", 
                       "data")
car_resale

# A tibble: 1,436 × 38
      Id Model          Price Age_08_04 Mfg_Month Mfg_Year    KM Fuel_Type    HP
   <dbl> <chr>          <dbl>     <dbl>     <dbl>    <dbl> <dbl> <chr>     <dbl>
 1     1 TOYOTA Coroll… 13500        23        10     2002 46986 Diesel       90
 2     2 TOYOTA Coroll… 13750        23        10     2002 72937 Diesel       90
 3     3  TOYOTA Corol… 13950        24         9     2002 41711 Diesel       90
 4     4 TOYOTA Coroll… 14950        26         7     2002 48000 Diesel       90
 5     5 TOYOTA Coroll… 13750        30         3     2002 38500 Diesel       90
 6     6 TOYOTA Coroll… 12950        32         1     2002 61000 Diesel       90
 7     7  TOYOTA Corol… 16900        27         6     2002 94612 Diesel       90
 8     8 TOYOTA Coroll… 18600        30         3     2002 75889 Diesel       90
 9     9  TOYOTA Corol… 21500        27         6     2002 19700 Petrol      192
10    10  TOYOTA Corol… 12950        23        10     2002 71138 Diesel       69
# ℹ 1,426 more rows
# ℹ 29 more variables: Met_Color <dbl>, Color <chr>, Automatic <dbl>, CC <dbl>,
#   Doors <dbl>, Cylinders <dbl>, Gears <dbl>, Quarterly_Tax <dbl>,
#   Weight <dbl>, Mfr_Guarantee <dbl>, BOVAG_Guarantee <dbl>,
#   Guarantee_Period <dbl>, ABS <dbl>, Airbag_1 <dbl>, Airbag_2 <dbl>,
#   Airco <dbl>, Automatic_airco <dbl>, Boardcomputer <dbl>, CD_Player <dbl>,
#   Central_Lock <dbl>, Powered_Windows <dbl>, Power_Steering <dbl>, …
…
head(car_resale,100)

# A tibble: 100 × 38
      Id Model          Price Age_08_04 Mfg_Month Mfg_Year    KM Fuel_Type    HP
   <dbl> <chr>          <dbl>     <dbl>     <dbl>    <dbl> <dbl> <chr>     <dbl>
 1     1 TOYOTA Coroll… 13500        23        10     2002 46986 Diesel       90
 2     2 TOYOTA Coroll… 13750        23        10     2002 72937 Diesel       90
 3     3  TOYOTA Corol… 13950        24         9     2002 41711 Diesel       90
 4     4 TOYOTA Coroll… 14950        26         7     2002 48000 Diesel       90
 5     5 TOYOTA Coroll… 13750        30         3     2002 38500 Diesel       90
 6     6 TOYOTA Coroll… 12950        32         1     2002 61000 Diesel       90
 7     7  TOYOTA Corol… 16900        27         6     2002 94612 Diesel       90
 8     8 TOYOTA Coroll… 18600        30         3     2002 75889 Diesel       90
 9     9  TOYOTA Corol… 21500        27         6     2002 19700 Petrol      192
10    10  TOYOTA Corol… 12950        23        10     2002 71138 Diesel       69
# ℹ 90 more rows
# ℹ 29 more variables: Met_Color <dbl>, Color <chr>, Automatic <dbl>, CC <dbl>,
#   Doors <dbl>, Cylinders <dbl>, Gears <dbl>, Quarterly_Tax <dbl>,
#   Weight <dbl>, Mfr_Guarantee <dbl>, BOVAG_Guarantee <dbl>,
#   Guarantee_Period <dbl>, ABS <dbl>, Airbag_1 <dbl>, Airbag_2 <dbl>,
#   Airco <dbl>, Automatic_airco <dbl>, Boardcomputer <dbl>, CD_Player <dbl>,
#   Central_Lock <dbl>, Powered_Windows <dbl>, Power_Steering <dbl>, …
…
