Take-home Exercise 1 –
…
2.5.4 Preview pre-processed data

Use head() to display the first 200 rows of the data. By viewing the processed data, we can observe that new variables have been added to the corresponding data sets.

data
v1
v2
v3_region

head(data, 200)

# A tibble: 200 × 6
   PA         SZ                     Age   Sex       Pop  Time
   <chr>      <chr>                  <chr> <chr>   <dbl> <dbl>
 1 Ang Mo Kio Ang Mo Kio Town Centre 0     Males      10  2024
 2 Ang Mo Kio Ang Mo Kio Town Centre 0     Females    10  2024
 3 Ang Mo Kio Ang Mo Kio Town Centre 1     Males      10  2024
 4 Ang Mo Kio Ang Mo Kio Town Centre 1     Females    10  2024
 5 Ang Mo Kio Ang Mo Kio Town Centre 2     Males      10  2024
 6 Ang Mo Kio Ang Mo Kio Town Centre 2     Females    10  2024
 7 Ang Mo Kio Ang Mo Kio Town Centre 3     Males      10  2024
 8 Ang Mo Kio Ang Mo Kio Town Centre 3     Females    10  2024
 9 Ang Mo Kio Ang Mo Kio Town Centre 4     Males      30  2024
10 Ang Mo Kio Ang Mo Kio Town Centre 4     Females    10  2024
# ℹ 190 more rows

head(v1,200)

# A tibble: 200 × 7
   PA         SZ                       Age Sex       Pop  Time Age_Group
   <chr>      <chr>                  <dbl> <chr>   <dbl> <dbl> <chr>    
 1 Ang Mo Kio Ang Mo Kio Town Centre     0 Males      10  2024 Youth    
 2 Ang Mo Kio Ang Mo Kio Town Centre     0 Females    10  2024 Youth    
 3 Ang Mo Kio Ang Mo Kio Town Centre     1 Males      10  2024 Youth    
 4 Ang Mo Kio Ang Mo Kio Town Centre     1 Females    10  2024 Youth    
 5 Ang Mo Kio Ang Mo Kio Town Centre     2 Males      10  2024 Youth    
 6 Ang Mo Kio Ang Mo Kio Town Centre     2 Females    10  2024 Youth    
 7 Ang Mo Kio Ang Mo Kio Town Centre     3 Males      10  2024 Youth    
 8 Ang Mo Kio Ang Mo Kio Town Centre     3 Females    10  2024 Youth    
 9 Ang Mo Kio Ang Mo Kio Town Centre     4 Males      30  2024 Youth    
10 Ang Mo Kio Ang Mo Kio Town Centre     4 Females    10  2024 Youth    
# ℹ 190 more rows

head(v2,200)

# A tibble: 200 × 7
   PA         SZ                       Age Sex       Pop  Time Age_Group
   <chr>      <chr>                  <dbl> <chr>   <dbl> <dbl> <fct>    
 1 Ang Mo Kio Ang Mo Kio Town Centre     0 Males      10  2024 00_to_04 
 2 Ang Mo Kio Ang Mo Kio Town Centre     0 Females    10  2024 00_to_04 
 3 Ang Mo Kio Ang Mo Kio Town Centre     1 Males      10  2024 00_to_04 
 4 Ang Mo Kio Ang Mo Kio Town Centre     1 Females    10  2024 00_to_04 
 5 Ang Mo Kio Ang Mo Kio Town Centre     2 Males      10  2024 00_to_04 
 6 Ang Mo Kio Ang Mo Kio Town Centre     2 Females    10  2024 00_to_04 
 7 Ang Mo Kio Ang Mo Kio Town Centre     3 Males      10  2024 00_to_04 
 8 Ang Mo Kio Ang Mo Kio Town Centre     3 Females    10  2024 00_to_04 
 9 Ang Mo Kio Ang Mo Kio Town Centre     4 Males      30  2024 00_to_04 
10 Ang Mo Kio Ang Mo Kio Town Centre     4 Females    10  2024 00_to_04 
# ℹ 190 more rows

head(v3_region,200)

# A tibble: 200 × 7
   PA         SZ                       Age Sex       Pop  Time Region    
   <chr>      <chr>                  <dbl> <chr>   <dbl> <dbl> <chr>     
 1 Ang Mo Kio Ang Mo Kio Town Centre     0 Males      10  2024 North-East
 2 Ang Mo Kio Ang Mo Kio Town Centre     0 Females    10  2024 North-East
 3 Ang Mo Kio Ang Mo Kio Town Centre     1 Males      10  2024 North-East
 4 Ang Mo Kio Ang Mo Kio Town Centre     1 Females    10  2024 North-East
 5 Ang Mo Kio Ang Mo Kio Town Centre     2 Males      10  2024 North-East
 6 Ang Mo Kio Ang Mo Kio Town Centre     2 Females    10  2024 North-East
 7 Ang Mo Kio Ang Mo Kio Town Centre     3 Males      10  2024 North-East
 8 Ang Mo Kio Ang Mo Kio Town Centre     3 Females    10  2024 North-East
 9 Ang Mo Kio Ang Mo Kio Town Centre     4 Males      30  2024 North-East
10 Ang Mo Kio Ang Mo Kio Town Centre     4 Females    10  2024 North-East
# ℹ 190 more rows
…
